h = 0.01;
W = 1;
H = 0.5;

Point(1)  = { 0, 0, 0, h};
Point(2)  = { W, 0, 0, h};
Point(3)  = { W, H, 0, h};
Point(4)  = { 0, H, 0, h};

Line(1) = { 1, 2};
Line(2) = { 2, 3};
Line(3) = { 3, 4};
Line(4) = { 4, 1}; 

Line Loop(1) = {1, 2, 3, 4};
Plane Surface(1) = {1};
Physical Surface(1) = {1};

Physical Line(100) = {1};
Physical Line(200) = {2};
Physical Line(300) = {3};
Physical Line(400) = {4};

Periodic Line {1} = {3} Translate{0,H,0};
